Script
…
basic_rec <- recipe(total_price ~ ., data = trans_train) %>%
  update_role(transaction_id, transaction_date, transaction_time,
              product_id, customer_id, barista_id, new_role = "ID")

basic_t_rec <- recipe(total_price ~ ., data = trans_train) %>%
  update_role(transaction_id, transaction_date, transaction_time,
              product_id, customer_id, barista_id, new_role = "ID") %>%
  step_unknown(all_nominal_predictors()) %>%
  step_dummy(all_nominal_predictors()) %>%
  step_zv(all_nominal_predictors())

prep(basic_t_rec, training = trans_train) %>% juice()

# A tibble: 2,997 × 41
   transaction_id transaction_date transaction_time product_id quantity
            <int> <date>           <chr>            <chr>         <int>
 1              1 2025-03-13       10:10:19         P302              1
 2              5 2025-01-16       19:17:24         P302              3
 3              7 2024-09-16       20:51:57         P201              1
 4              8 2024-11-19       14:17:27         P103              3
 5             10 2025-04-09       10:34:23         P302              3
 6             11 2024-12-21       20:42:07         P102              2
 7             14 2024-10-17       19:22:30         P202              3
 8             15 2025-02-11       18:53:16         P102              2
 9             16 2025-05-08       12:16:37         P102              1
10             18 2024-09-11       15:27:29         P202              1
# ℹ 2,987 more rows
# ℹ 36 more variables: unit_price <dbl>, customer_id <chr>,
#   loyalty_points_earned <int>, barista_id <chr>, transaction_datetime <dttm>,
#   hour <int>, total_price <dbl>, product_name_Cappuccino <dbl>,
#   product_name_Chai.Latte <dbl>, product_name_Croissant <dbl>,
#   product_name_Espresso <dbl>, product_name_Green.Tea <dbl>,
#   product_name_Latte <dbl>, product_name_unknown <dbl>, …

Show and hide code

prep(basic_rec, training = trans_train) |> juice()

# A tibble: 2,997 × 19
   transaction_id transaction_date transaction_time product_id product_name
            <int> <date>           <chr>            <chr>      <fct>       
 1              1 2025-03-13       10:10:19         P302       Croissant   
 2              5 2025-01-16       19:17:24         P302       Croissant   
 3              7 2024-09-16       20:51:57         P201       Green Tea   
 4              8 2024-11-19       14:17:27         P103       Latte       
 5             10 2025-04-09       10:34:23         P302       Croissant   
 6             11 2024-12-21       20:42:07         P102       Cappuccino  
 7             14 2024-10-17       19:22:30         P202       Chai Latte  
 8             15 2025-02-11       18:53:16         P102       Cappuccino  
 9             16 2025-05-08       12:16:37         P102       Cappuccino  
10             18 2024-09-11       15:27:29         P202       Chai Latte  
# ℹ 2,987 more rows
# ℹ 14 more variables: product_category <fct>, size <fct>, quantity <int>,
#   unit_price <dbl>, payment_method <fct>, customer_id <chr>,
#   loyalty_points_earned <int>, location <fct>, barista_id <chr>,
#   transaction_datetime <dttm>, hour <int>, wday <ord>, day_work <fct>,
#   total_price <dbl>
…
